{
    "skillname": "Air Step",
    "description": "3회동안 q를 누르면 스킬 나감",
    "options": {
        "Interceptable": true
    },
    "frames": [
        {
            "frame": "WaitMidairAction",
            "label":"wait",
            "args": ["AIR_SNEAK", "CASTER", "#scaffold", "#end", 36000, 10]
        },
        {
            "frame": "Sleep",
            "args": [50]
        },
        {
            "frame": "Jump",
            "args": ["#wait"]
        },
        {
            "frame": "CastSkill",
            "label":"scaffold",
            "args": ["Air Scaffold", true]
        },
        {
            "frame": "Sleep",
            "args": [500]
        },
        {
            "frame": "Jump",
            "args": ["#wait"]
        },
        {
            "frame": "SendMessage",
            "label":"end",
            "args": ["[\"\",{\"text\":\"End Listener\",\"color\":\"red\",\"bold\":true}]"]
        },
        {
            "frame": "Stop",
            "args": []
        }
    ]
}