{
    "skillname": "Sword Missile3",
    "description": "",
    "options": {
        "Interceptable": true
    },
    "frames": [
        //========================================
        // 만약 타겟이 없다면 종료
        {
            "frame": "IfTargetSize",
            "args": [
                "BELOW_EQUARE",
                0, -1
            ]
        },
        {
            "frame": "SelectN",
            "args": [
                1
            ]
        },
        // 위치를 플레이어 중심으로 변경
        {
            "frame": "SetLocation",
            "args": ["CASTER", "RELATIVE_CORDINATE", [0, 1, 0]]
        },
        {
            "frame": "SetRotation",
            "args": ["SET", [55, 120, 0]]
        },
        {
            "frame": "Move",
            "args": [1.3]
        },
        {
            "frame": "PlaceDisplay",
            "args": [
                "minecraft:iron_sword", 1, "RELATIVE_CORDINATE", [0, 0, 0],
                [0, 0, 0]
            ]
        },
        //========================================
        // 잠시 앞으로 날아가다가
        {
            "frame": "ReachingAfterTime",
            "label":"move",
            "args": ["#chase", 300]
        },
        {
            "frame": "ControlDisplay",
            "args": [1]
        },
        {
            "frame": "Sleep",
            "args": [33]
        },
        {
            "frame": "IfSkillPositionBlockType",
            "args": [
                "UNMATCH",
                "#endNoKill",
                ["minecraft:tallgrass", "minecraft:grass", "minecraft:air", "minecraft:water", "minecraft:flowing_water"]
                
            ]
        },
        {
            "frame": "Move",
            "args": [
                0.4
            ]
        },
        {
            "frame": "Jump",
            "args": ["#move"]
        },
        //========================================
        // 추적 코드
        {
            "frame": "ReachingAfterTime",
            "label": "chase",
            "args": ["#endNoKill", 8000]
        },
        
        {
            "frame": "StackPush",
            "args": []
        },
        {
            "frame": "FindByLocation",
            "args": [
                "SKILL",
                "RELATIVE_CORDINATE", [0, 0, 0],
                [0.5, 0.5, 0.5]
            ]
        },
        {
            "frame": "SelectLiving",
            "args": []
        },
        {
            "frame": "ExceptEntityTypes",
            "args": [
                "minecraft:armorstand"
            ]
        },
        {
            "frame": "ExceptCaster",
            "args": []
        },
        {
            "frame": "ControlDisplay",
            "args": [1]
        },
        {
            "frame": "IfTargetSize",
            "args": [
                "ABOVE",
                0,
                "#end"
            ]
        },
        {
            "frame": "StackPop",
            "args": []
        },
        {
            "frame": "Sleep",
            "args": [20]
        },
        {
            "frame": "IfSkillPositionBlockType",
            "args": [
                "UNMATCH",
                "#endNoKill",
                ["minecraft:tallgrass", "minecraft:grass", "minecraft:air", "minecraft:water", "minecraft:flowing_water"]
            ]
        },        
        {
            "frame": "Move",
            "args": [
                0.7
            ]
        },
        
        {
            "frame": "Turn",
            "label":"turning",
            "args": [
                "FIRST_TARGET_LOCATION",
                0.14
            ]
        },
        
        {
            "frame": "Jump",
            "args": ["#chase"]
        },
        //========================================
        // 
        {
            "frame": "ActAttack",
            "label": "end",
            "args": [4]
        },
        {
            "frame": "DisplayParticle",
            "label": "endNoKill",
            "args": ["SKILL_POSITION", "minecraft:large_explosion", "RELATIVE_CORDINATE", [0, 0.5, 0],
                [0, 0, 0], 1
            ]
        },
        {
            "frame": "PlaySound",
            "args": ["minecraft:block.anvil.land", 1.0, 1.2]
        }




    ]
}